{
    "name": "rescript-aubio-vizzz",
    "sources": {
        "dir": "src",
        "subdirs": true
    },
    "package-specs": {
        "module": "es6",
        "in-source": true
    },
    "suffix": ".bs.js",
    "bs-dependencies": [
        "@ryyppy/rescript-promise"
    ],
    "refmt": 3
}